<?xml version="1.0" encoding="UTF-8" standalone="no"?>
<svg
   version="1.1"
   id="svg712"
   width="1773.3844"
   height="667.27625"
   viewBox="0 0 1773.3844 667.27625"
   sodipodi:docname="ksp-france-light.svg"
   inkscape:version="1.2.2 (732a01da63, 2022-12-09)"
   xmlns:inkscape="http://www.inkscape.org/namespaces/inkscape"
   xmlns:sodipodi="http://sodipodi.sourceforge.net/DTD/sodipodi-0.dtd"
   xmlns="http://www.w3.org/2000/svg"
   xmlns:svg="http://www.w3.org/2000/svg"
   xmlns:rdf="http://www.w3.org/1999/02/22-rdf-syntax-ns#"
   xmlns:cc="http://creativecommons.org/ns#"
   xmlns:dc="http://purl.org/dc/elements/1.1/">
  <metadata
     id="metadata718">
    <rdf:RDF>
      <cc:Work
         rdf:about="">
        <dc:format>image/svg+xml</dc:format>
        <dc:type
           rdf:resource="http://purl.org/dc/dcmitype/StillImage" />
      </cc:Work>
    </rdf:RDF>
  </metadata>
  <defs
     id="defs716" />
  <sodipodi:namedview
     pagecolor="#ffffff"
     bordercolor="#666666"
     borderopacity="1"
     objecttolerance="10"
     gridtolerance="10"
     guidetolerance="10"
     inkscape:pageopacity="0"
     inkscape:pageshadow="2"
     inkscape:window-width="1920"
     inkscape:window-height="1009"
     id="namedview714"
     showgrid="false"
     inkscape:zoom="0.28442383"
     inkscape:cx="1436.2369"
     inkscape:cy="808.65235"
     inkscape:window-x="-8"
     inkscape:window-y="-8"
     inkscape:window-maximized="1"
     inkscape:current-layer="g720"
     inkscape:document-rotation="0"
     inkscape:showpageshadow="2"
     inkscape:pagecheckerboard="0"
     inkscape:deskcolor="#d1d1d1" />
  <g
     inkscape:groupmode="layer"
     inkscape:label="Image"
     id="g720"
     transform="translate(-152.7051,-57.654887)">
    <path
       style="fill:#0a4e7f;fill-opacity:1"
       d="m 467.08948,724.14118 c -73.99499,-4.9446 -144.19396,-33.2756 -201,-81.1199 -10.81356,-9.1076 -34.73203,-33.3813 -43.14803,-43.7888 -15.54151,-19.2192 -28.74893,-39.67552 -39.55158,-61.25942 -6.28411,-12.55577 -16.80039,-37.40207 -16.80039,-39.69347 0,-0.51101 -0.34899,-1.14481 -0.77554,-1.40843 C 117.16643,290.39653 213.66535,174.2787 295.58948,117.30662 397.37147,48.229646 530.08172,38.402426 641.21431,91.713016 749.0362,143.43546 821.1234,245.29449 831.57339,360.68994 c 1.41461,15.62096 1.13795,51.97313 -0.50642,66.5425 -9.01154,79.84383 -46.34574,152.87074 -105.97749,207.29554 -69.77466,63.682 -162.75526,95.9777 -258,89.6132 z m 26.74839,-28.6587 c 69.16438,-68.4752 107.24074,-132.9767 119.82038,-202.9763 2.69997,-15.02404 3.70392,-46.17188 2.01103,-62.39269 -2.99226,-28.67091 -11.44149,-59.60511 -23.13057,-84.68532 -8.20134,-17.59686 -17.59387,-31.53529 -54.03796,-80.19181 -44.41331,-59.29621 -58.63257,-80.61995 -71.01981,-106.50392 -19.40292,-40.5437 -18.29172,-69.542714 3.30751,-86.316024 3.19441,-2.48068 5.69394,-4.59609 5.55452,-4.70091 -0.13942,-0.10482 -4.58579,0.32979 -9.88083,0.9658 -8.75658,1.05179 -10.24895,1.55755 -16.5,5.59176 -3.77996,2.43946 -10.51458,8.05056 -14.96582,12.46911 -6.64178,6.593 -8.92724,9.7335 -12.74411,17.511994 -6.09031,12.41155 -7.72873,18.95971 -8.37663,33.47827 -1.19758,26.83594 7.20465,57.36947 26.6925,97 15.26899,31.05104 30.3468,55.7212 60.50643,99 16.60403,23.82663 23.94622,36.0173 33.12537,55 14.78647,30.57876 23.67602,60.03463 27.46307,91 1.77766,14.53527 1.52509,46.4469 -0.48675,61.5 -7.70971,57.68604 -33.63879,109.84864 -78.58698,158.09674 -10.14457,10.8893 -10.1534,10.9033 -6.90369,10.9033 2.85139,0 5.09674,-1.8245 18.15234,-14.75 z m -70.78268,-101.2951 2.9657,-2.9248 -2.70002,-5.2651 c -1.48501,-2.8958 -4.95111,-9.54 -7.70244,-14.76504 -6.76498,-12.84722 -9.02895,-19.13527 -9.02895,-25.07735 0,-5.9367 1.00852,-8.05544 13.11705,-27.55677 4.96659,-7.99892 9.87528,-16.51508 10.90821,-18.9248 1.03292,-2.40972 5.79029,-11.25725 10.57193,-19.66119 11.95739,-21.01565 17.9381,-33.22529 21.58464,-44.06514 2.62418,-7.80073 3.17263,-11.15553 3.57407,-21.86228 l 0.4742,-12.64753 -4.11295,-4.46203 c -4.79297,-5.19975 -11.23334,-8.80514 -27.04912,-15.14241 -6.28758,-2.51939 -13.14384,-5.76703 -15.23612,-7.21699 -2.09229,-1.44995 -7.81644,-7.23826 -12.72034,-12.8629 -13.25942,-15.20817 -19.60478,-19.72839 -37.81986,-26.94158 -22.12337,-8.76087 -34.64871,-5.05337 -43.29809,12.81623 -5.40404,11.16474 -8.05712,21.88306 -8.68936,35.10474 -0.88771,18.56376 2.89048,28.28566 18.84839,48.5 9.5054,12.04077 18.20306,24.72272 21.60365,31.5 1.10388,2.2 3.63955,10.6873 5.63484,18.86067 12.36998,50.67168 29.26234,95.52827 41.24754,109.53037 3.98187,4.6519 8.99129,7.3062 12.36132,6.5499 1.375,-0.3086 3.83457,-1.8773 5.46571,-3.486 z m 242.75909,-10.5712 c 1.71902,-0.8889 6.08417,-3.7517 9.70034,-6.3618 9.37151,-6.7641 10.6247,-7.32278 13.32486,-5.94033 1.2375,0.63358 4.10699,2.93863 6.37664,5.12233 l 4.12663,3.9703 7.87337,-1.1476 c 11.33167,-1.6517 16.76507,-4.6359 26.01468,-14.28818 13.44537,-14.03065 19.75411,-29.33703 19.67606,-47.73846 -0.0311,-7.32398 -0.54562,-10.81447 -2.24644,-15.23866 -2.70464,-7.03532 -9.14184,-13.75289 -15.50908,-16.18456 -4.60517,-1.75874 -4.64716,-1.75536 -11.34207,0.91261 -24.77308,9.87225 -37.80572,26.04119 -55.2216,68.51061 -3.72148,9.075 -8.118,19.28804 -9.77004,22.69554 -1.65204,3.4076 -2.75421,6.4451 -2.44926,6.75 1.10945,1.1095 6.39641,0.5152 9.44591,-1.0618 z M 640.95349,443.90223 c 6.49985,-21.07046 8.73073,-24.66979 15.2904,-24.66979 3.48244,0 6.0939,-2.76004 8.8479,-9.35129 1.79125,-4.28707 4.9646,-24.43319 6.84757,-43.47212 1.27049,-12.846 1.67391,-14.5995 3.91118,-17 5.32606,-5.71468 6.17275,-11.05721 2.50268,-15.79173 -2.75136,-3.54937 -5.17442,-5.54964 -14.1345,-11.66827 -19.1972,-13.10931 -39.62924,-31.80497 -39.62924,-36.26142 0,-1.62701 10.20371,0.59157 21.41612,4.65649 11.90059,4.3144 19.65047,9.90385 35.16246,25.36023 12.6477,12.60237 15.35984,15.96626 26.68517,33.09785 12.75361,19.29213 20.7811,29.43026 23.30324,29.43026 2.07586,0 3.75706,-3.97005 8.89288,-21 5.02391,-16.65886 7.13212,-21.29774 9.92337,-21.83529 5.33269,-1.02698 10.70276,3.57827 19.59709,16.80604 4.09982,6.09731 8.20247,10.68376 13.23105,14.79132 9.26543,7.56838 18.77584,14.23793 20.30253,14.23793 0.65029,0 1.98855,-1.78786 2.97392,-3.97302 2.17623,-4.826 1.66607,-13.93055 -1.99623,-35.62553 -8.64968,-51.23967 -29.47856,-98.04775 -61.68255,-138.61722 -10.26025,-12.9255 -32.25787,-35.45593 -45.17421,-46.26838 l -9.86515,-8.25827 -14.63485,-0.67274 c -20.04443,-0.92141 -33.54693,-2.27059 -47.13484,-4.70975 -16.78585,-3.01322 -22.5105,-2.45129 -33.58749,3.29692 -17.85285,9.26443 -28.22063,11.40894 -46.67413,9.65423 -12.32148,-1.17162 -12.91456,-1.13918 -17.19558,0.9407 -2.61691,1.2714 -6.13579,4.30718 -8.58681,7.40795 -4.67692,5.91674 -14.32352,24.43951 -13.6374,26.18563 1.06351,2.70659 45.48005,57.63948 46.60497,57.63948 0.40153,0 0.53276,-1.34424 0.29163,-2.9872 -0.51837,-3.53187 0.44689,-8.0128 1.72608,-8.0128 1.38903,0 18.13665,14.56111 21.8969,19.03813 1.83599,2.18596 3.68372,5.20914 4.10605,6.71817 1.04585,3.73685 -1.13353,7.76544 -4.91384,9.08326 -1.66671,0.58102 -3.03038,1.33091 -3.03038,1.66642 0,0.33551 2.8339,4.29642 6.29755,8.80202 14.35404,18.67205 27.89242,39.48431 33.10802,50.89623 10.14835,22.20494 17.53612,48.24105 20.51399,72.29577 2.43962,19.70681 2.34448,34.31183 -0.41361,63.5 -0.48972,5.18248 -0.35437,4.95156 2.34447,-4 1.5753,-5.225 4.50642,-14.82359 6.51359,-21.33021 z M 319.48589,342.69764 c 1.70697,-1.94413 3.10359,-3.908 3.10359,-4.36414 0,-0.45614 -2.04369,-1.60984 -4.54153,-2.56377 -2.49784,-0.95394 -5.20298,-2.74393 -6.01142,-3.97776 -1.29702,-1.9795 -1.28838,-2.75781 0.0735,-6.61772 3.00181,-8.50804 -0.26786,-13.54992 -13.35334,-20.59106 -4.76695,-2.56505 -9.37319,-5.26429 -10.23607,-5.99831 -0.86289,-0.73403 -3.31858,-1.22611 -5.4571,-1.09352 -3.42829,0.21256 -4.06563,-0.11378 -5.38802,-2.75892 -5.80213,-11.60583 3.91642,-29.45288 20.47839,-37.60632 12.0335,-5.92406 18.2762,-4.1465 27.0358,7.69824 3.05902,4.13641 6.0683,7.35192 6.6873,7.14558 1.25453,-0.41817 4.48124,-6.45221 11.2301,-21.00057 3.95792,-8.53201 5.69243,-10.94289 13.7557,-19.11969 16.02876,-16.25443 33.21241,-27.38097 43.86799,-28.40484 2.67229,-0.25677 4.85872,-0.89713 4.85872,-1.42302 0,-0.52588 -0.91303,-4.53214 -2.02896,-8.90279 -3.34873,-13.1157 -4.95891,-26.5825 -4.96514,-41.52612 -0.007,-15.73269 1.64232,-26.59916 5.69541,-37.5338 l 2.58794,-6.98187 -2.07652,-2.07651 c -3.70891,-3.70891 -13.1093,-1.83203 -15.63945,3.12256 -0.73282,1.43503 -1.66652,4.18415 -2.07488,6.10915 -0.76553,3.60867 -4.15221,11 -5.04016,11 -0.27562,0 -2.17897,-1.09267 -4.22968,-2.42816 -9.50751,-6.1916 -23.87534,-7.21014 -37.22856,-2.63913 -13.50781,4.62393 -45.70181,26.60434 -63.65306,43.45904 -8.9285,8.3831 -24.37867,26.07267 -31.53715,36.10825 -8.18726,11.47784 -12.81766,25.7175 -12.80577,39.38099 0.0155,17.80341 8.31514,42.37543 19.29297,57.11901 6.52173,8.75889 9.20559,10.73914 25.85199,19.0746 8.64616,4.32944 17.30024,9.25893 19.23129,10.95442 1.93105,1.69549 5.39351,6.09507 7.69435,9.77684 2.30084,3.68178 4.87004,7.48164 5.70935,8.44414 2.4047,2.75767 5.68888,2.11442 9.11244,-1.7848 z m 154.87487,-213.2152 c 7.2334,-9.22837 7.05243,-10.40788 -3.02128,-19.69206 -8.15896,-7.51949 -8.25331,-7.57199 -8.55018,-4.75736 -0.61023,5.78569 5.5799,28.19942 7.788,28.19942 0.46427,0 2.16682,-1.6875 3.78346,-3.75 z m 643.60904,491.00004 c -0.3618,-1.5125 -3.0297,-11.975 -5.9287,-23.25 -2.899,-11.275 -8.7291,-34.00004 -12.9556,-50.50004 -4.2266,-16.5 -10.5674,-41.25 -14.0905,-55 -3.5232,-13.75 -9.3836,-36.7 -13.023,-51 -3.6395,-14.3 -6.9604,-26.37346 -7.3798,-26.82992 -0.8003,-0.87104 -53.5804,31.4825 -55.7634,34.18229 -0.993,1.22806 -1.2537,19.83041 -1.2279,87.60338 l 0.033,86.04429 -44.52214,0.2603 -44.52208,0.2603 0.018,-114.26034 0.018,-114.2603 20.73202,-11.93137 c 11.40237,-6.56225 37.60676,-21.69266 58.23176,-33.62314 66.56964,-38.50702 177.33394,-102.47599 183.25894,-105.83632 l 5.7589,-3.26611 -0.2589,52.75975 -0.2589,52.75976 -18,9.78648 c -9.9,5.38256 -18.3808,10.36985 -18.8461,11.08286 -0.5179,0.79355 1.545,10.59991 5.3186,25.28224 3.3907,13.19222 7.9025,30.73585 10.0263,38.98585 2.1237,8.25 6.6202,25.8 9.9922,39 5.9465,23.27859 11.639,45.4607 19.8886,77.5 11.8263,45.92994 19.1204,74.87494 19.1204,75.87454 0,0.8182 -12.9647,1.1255 -47.4809,1.1255 h -47.481 z m 199.3697,-15.7818 -20.75,-17.5215 V 528.0945 469.00986 l 3.4777,0.65243 c 3.3049,0.61998 14.8016,2.20373 58.0223,7.99293 10.45,1.39973 20.4625,2.79761 22.25,3.1064 l 3.25,0.56145 v 20.03914 20.03914 l 4.6475,5.91554 4.6475,5.91555 h 34.2593 34.2593 l 6.5932,-2.95818 6.5932,-2.95817 -0.067,-55.29183 -0.067,-55.29182 -6.4757,-5.34479 c -7.2539,-5.98717 2.1519,-2.62834 -85.2736,-30.45108 l -42.3837,-13.4884 -21.8663,-21.84934 -21.8663,-21.84934 v -96.2034 -96.20339 l 21.25,-18.02423 21.25,-18.024244 91.2728,-0.0309 91.2728,-0.0309 18.7272,18.159384 c 10.3,9.98766 19.0838,18.46671 19.5195,18.84234 1.1274,0.97174 1.4231,118.99856 0.2982,118.99841 -0.5003,-7e-5 -17.3753,-2.26943 -37.5,-5.04303 -20.1248,-2.77359 -39.0655,-5.36326 -42.0905,-5.7548 l -5.5,-0.71191 -0.5,-22.02407 -0.5,-22.02408 -3.8352,-5.22112 -3.8351,-5.22112 h -34.9372 -34.9372 l -4.7276,4.25 c -2.6003,2.3375 -5.0583,4.7 -5.4624,5.25 -0.4041,0.55 -0.7416,20.67594 -0.75,44.72432 l -0.015,43.72432 2.75,1.36538 c 1.5125,0.75096 31.4605,12.11118 66.5512,25.24494 l 63.8012,23.87955 22.3894,19.03074 22.3895,19.03075 0.059,107.54391 0.059,107.54394 -20.4439,17.7061 -20.444,17.7061 -92.306,-0.01 h -92.3061 l -20.75,-17.5216 z m 364.7867,-4.268 -21.5367,-18.2998 V 355.42295 128.71304 l 21.5162,-18.2403 21.5163,-18.240304 91.7337,0.0214 91.7338,0.0214 19.1986,19.030014 19.1986,19.03 0.3014,58.94739 0.3014,58.94739 -3,-0.48165 c -1.65,-0.26491 -13.125,-1.85742 -25.5,-3.53892 -12.375,-1.68149 -30.3128,-4.16421 -39.8618,-5.51715 -9.549,-1.35295 -17.5365,-2.4599 -17.75,-2.4599 -0.2135,0 -0.3882,-9.56251 -0.3882,-21.25002 v -21.25003 l -4.0791,-5.74997 -4.0791,-5.74998 h -35.2085 -35.2085 l -4.7124,4.78435 -4.7124,4.78435 v 163.50324 163.50324 l 4.7843,4.71241 4.7844,4.71241 35.4656,-0.0379 35.4657,-0.0379 3.75,-5.40213 3.75,-5.40213 v -21.4447 -21.4447 l 5.75,-0.67575 c 5.1254,-0.60233 32.3074,-4.34124 68.25,-9.38783 l 12.5,-1.75508 -0.266,59.0441 -0.2659,59.04409 -19.2341,18.6945 -19.234,18.6945 -91.7133,0.3055 -91.7133,0.3055 z M 919.58948,228.27459 V 98.232436 h 44.55898 c 25.6892,0 44.32674,0.37588 44.01054,0.88759 -0.3017,0.48817 -0.7687,47.625674 -1.0377,104.750004 l -0.4891,103.86241 -39.27134,22.81096 c -21.59928,12.54603 -41.18388,23.9275 -43.52138,25.29216 l -4.25,2.48119 z"
       id="path724"
       sodipodi:nodetypes="sssssccssssssssssssssssssssssssssscsssssssscssssssssssssssssscssssssssssssssssssssssssssssssscssssssssssssssssssssssssssssssssssssscscsssssssssssssssssssssssssssscccccccsscccsssssssscsccccssscccccccccccsscccccccccssssscccccccssscsscccccccccccccccccccccccssssscccccccccccccccccssccccccccccssscsscc" />
  </g>
</svg>
